{
    "KPlugin": {
        "BugReportUrl": "https://bugs.kde.org/enter_bug.cgi?product=systemsettings&component=kcm_powerdevil",
        "Description": "Power Management",
        "Description[ar]": "إدارة الطاقة",
        "Description[be]": "Кіраванне сілкаваннем",
        "Description[bg]": "Управление на захранването",
        "Description[ca@valencia]": "Gestió de l'energia",
        "Description[ca]": "Gestió de l'energia",
        "Description[eo]": "Administrado de Energio",
        "Description[es]": "Gestión de energía",
        "Description[eu]": "Energia-kudeaketa",
        "Description[fi]": "Virranhallinta",
        "Description[fr]": "Système de gestion de l'énergie",
        "Description[gl]": "Xestión da enerxía",
        "Description[he]": "ניהול צריכת חשמל",
        "Description[hu]": "Energiakezelés",
        "Description[ia]": "Gestion de energia",
        "Description[it]": "Gestione energetica",
        "Description[ja]": "電源管理",
        "Description[ka]": "კვების მართვა",
        "Description[ko]": "전원 관리",
        "Description[lt]": "Energijos valdymas",
        "Description[nl]": "Energiebeheer",
        "Description[pa]": "ਪਾਵਰ ਇੰਤਜ਼ਾਮ",
        "Description[pl]": "Zarządzanie energią",
        "Description[ro]": "Gestiunea energiei",
        "Description[ru]": "Управление питанием",
        "Description[sl]": "Upravljanje z energijo",
        "Description[ta]": "ஆற்றல் மேலாண்மை",
        "Description[tr]": "Güç yönetimi",
        "Description[uk]": "Керування живленням",
        "Description[x-test]": "xxPower Managementxx",
        "Description[zh_CN]": "电源管理",
        "Description[zh_TW]": "電源管理",
        "Icon": "preferences-system-power-management",
        "Name": "Power Management",
        "Name[ar]": "إدارة الطاقة",
        "Name[az]": "Enerjiyə Nəzarət",
        "Name[be]": "Кіраванне сілкаваннем",
        "Name[bg]": "Управление на захранването",
        "Name[bs]": "Upravljanje napajanjem",
        "Name[ca@valencia]": "Gestió de l'energia",
        "Name[ca]": "Gestió d'energia",
        "Name[cs]": "Správa napájení",
        "Name[da]": "Strømstyring",
        "Name[de]": "Energieverwaltung",
        "Name[el]": "Διαχείριση ισχύος",
        "Name[en_GB]": "Power Management",
        "Name[eo]": "Administrado de Energio",
        "Name[es]": "Gestión de energía",
        "Name[et]": "Toitehaldus",
        "Name[eu]": "Energia-kudeaketa",
        "Name[fi]": "Virranhallinta",
        "Name[fr]": "Système de gestion de l'énergie",
        "Name[gl]": "Xestión da enerxía",
        "Name[he]": "ניהול צריכת חשמל",
        "Name[hu]": "Energiakezelés",
        "Name[ia]": "Gestion de energia",
        "Name[id]": "Pengelolaan Daya",
        "Name[it]": "Gestione energetica",
        "Name[ja]": "電源管理",
        "Name[ka]": "კვების მართვა",
        "Name[ko]": "전원 관리",
        "Name[lt]": "Energijos valdymas",
        "Name[nb]": "Strømstyring",
        "Name[nds]": "Stroompleeg",
        "Name[nl]": "Energiebeheer",
        "Name[nn]": "Straumstyring",
        "Name[pa]": "ਪਾਵਰ ਇੰਤਜ਼ਾਮ",
        "Name[pl]": "Zarządzanie energią",
        "Name[pt_BR]": "Gerenciamento de energia",
        "Name[ro]": "Gestiunea alimentării",
        "Name[ru]": "Управление питанием",
        "Name[sk]": "Správa napájania",
        "Name[sl]": "Upravljanje z energijo",
        "Name[sv]": "Strömhantering",
        "Name[ta]": "ஆற்றல் மேலாண்மை",
        "Name[tr]": "Güç Yönetimi",
        "Name[uk]": "Керування живленням",
        "Name[x-test]": "xxPower Managementxx",
        "Name[zh_CN]": "电源管理",
        "Name[zh_TW]": "電源管理"
    },
    "X-DocPath": "kcontrol/powerdevil/index.html",
    "X-KDE-Keywords": "system,power,power management,energy,energy saving,laptop,battery,suspension,AC,suspend,suspending,hibernating,hibernate,brightness,performance,lid,power saving,charging,charge,limit,charge limit,charging limit,discharge,discharging,dim screen,sleep,lock screen,lockscreen,turn screen off,turn off,power button,power buttons,battery levels,low battery,low level,critical level,power notifications,plug,unplug",
    "X-KDE-Keywords[ar]": "نظام,النظام,طاقة,الطاقة,إدارة الطاقة,ادارة الطاقة, لابتوب,حاسوب محمول,محمول,سطوع,إضاءة,اضاءة,تعليق,علق,نم,نوم,أسبت,اسبت,اسبات,إسبات,أداء,اداء,الأداء,نشاط,جدث,أنشطة,أحداث,",
    "X-KDE-Keywords[az]": "system,power,power management,energy,laptop,battery,suspension,AC,suspend,suspending,hibernating,hibernate,brightness,performance,lid,power saving,charging,charge,limit,charge limit,charging limit,discharge,discharging,dim screen,sleep,lock screen,lockscreen,turn screen off,turn off,power button,power buttons,battery levels,low battery,low level,critical level,power notifications,plug,unplug,sistem,güc,güc idarəetməsi,enerji,dizüstü kompyuter,noutbuk,batareya,yuxulama,dəyişən cəryan şəbəkəsi,fasilə,parlaqlıq,işləmə gücü,enerjiyə qənaət,doldurma,boşalma,söndürmək,batareya səviyyəsi,ekranın qaralması,yuxu rejimi,ekranın kilidlənməsi,ekranın söndürülməsi,güc düymələri,zəif batareya,aşağı səviyyə,kritik səviyyə,güc bildirişləri,qoşmaq,çıxarmaq",
    "X-KDE-Keywords[bg]": "енергия,захранване,лаптоп,монитор,хибернация,изключване,приспиване,яркост,натоварване,батерия,зареждане,заключване,дейности,работна среда,затъмняване,екран,разреждане,поведение,система",
    "X-KDE-Keywords[ca@valencia]": "sistema,energia,gestió d'energia,corrent,portàtil,bateria,suspensió,AC,suspendre,hibernació,hiberna,hibernar,lluminositat,rendiment,tapa,estalvi d'energia,carregant,càrrega,límit,límit de càrrega,càrrega límit,descarregant,descàrrega,descarrega,enfosquiment de pantalla,adormir,bloqueig de pantalla,apagar la pantalla,apaga,apagat,nivells de la bateria,botó d'encesa,botó d'apagat,bateria baixa,nivell baix,nivell crítica,notificacions d'energia,connecta,desconnecta",
    "X-KDE-Keywords[ca]": "sistema,energia,gestió d'energia,corrent,portàtil,bateria,suspensió,AC,suspendre,hibernació,hiberna,lluminositat,rendiment,tapa,estalvi d'energia,carregant,càrrega,límit,límit de càrrega,càrrega límit,descarregant,descarrega,enfosquiment de pantalla,adormir,bloqueig de pantalla,apagar la pantalla,apaga,apagat,botó d'encesa,botó d'apagat,nivells de la bateria,bateria baixa,nivell baix,nivell crític,notificacions d'energia,endolla,desendolla",
    "X-KDE-Keywords[de]": "Notebook,Akku,Ruhezustand,Laden,Ausschalten,Sperrbildschirm,Bildschirm",
    "X-KDE-Keywords[el]": "σύστημα,ισχύς,διαχείριση ισχύος,ενέργεια,φορητός,μπαταρία,αναστολή,AC,κοίμηση,κοίμηση,νάρκη,λαμπρότητα,επιδόσεις,καπάκι,εξοικονόμηση ισχύος,φόρτιση,φορτίζει,όριο,όριο φόρτισης,αποφόρτιση,οθόνη με αμυδρό φως,ύπνωση,κλείδωμα οθόνης,κλείδωμα,σβήσιμο οθόνης,σβήσιμο,επίπεδα μπαταρίας,κουμπί εκκίνησης,κουμπιά εκκίνησης,χαμηλή στάθμη μπαταρίας,χαμηλή στάθμη,κρίσιμο επίπεδο,ειδοποιήσεις ιχύος,σύνδεση,αποσύνδεση",
    "X-KDE-Keywords[en_GB]": "system,power,power management,energy,laptop,battery,suspension,AC,suspend,suspending,hibernating,hibernate,brightness,performance,lid,power saving,charging,charge,limit,charge limit,charging limit,discharge,discharging,dim screen,sleep,lock screen,lockscreen,turn screen off,turn off,power button,power buttons,battery levels,low battery,low level,critical level,power notifications,plug,unplug",
    "X-KDE-Keywords[es]": "sistema,energía,gestión de energía,portátil,laptop,batería,suspensión,AC,CA,suspender,hibernación,hibernar,brillo,rendimiento,tapa,ahorro de energía,carga,cargar,límite,límite de carga,limitar carga,descarga,descargar,oscurecer pantalla,dormir,bloquear pantalla,apagar pantalla,apagar,apagado,botón de encendido,botones de encendido,niveles de batería,batería baja,nivel bajo,nivel crítico,notificaciones de energía,enchufar,desenchufar",
    "X-KDE-Keywords[eu]": "sistema,indarra,energia kudeaketa,energia-kudeaketa,energia,magalekoa,eramangarria,bateria,esekitzea,AC,eseki,esekitzen,hibernatzen,hibernatu,distira,performantzia,tapa,lid,energia aurreztea,kargatzen,karga,muga,karga-muga,kargatzeko muga,deskarga,deskargatzen,pantaila moteltzea,lokartu,pantaila giltzatzea,pantaila itzaltzea,itzali,indar-botoia,indar-botoiak,bateria-maila,bateria baxu,maila baxua,maila larria,energia-jakinarazpenak,entxufatu,entxufea kendu",
    "X-KDE-Keywords[fi]": "järjestelmä,virta,virranhallinta,energia,kannettava,tietokone,akku,keskeytä,verkkovirta,lepotila,valmiustila,kirkkaus,suorituskyky,kansi,tasot,kriittinen,virransäästö,lataus,rajoitus,latausrajoitus,himmennys,lukitus,lukitusnäyttö,näytönsäästäjä,sammuta näyttö,sammuta,akkutasot,alhainen taso,kriittinen taso,virtailmoitukset,virtakytkin,virtakytkimet",
    "X-KDE-Keywords[fr]": "système,alimentation,gestion de l'énergie,énergie,portable,batterie,suspension,AC,suspendre,hiberner,hibernation,luminosité,performance,écran de portable,économie d'énergie,charge,chargement,limite,limite de charge,limite de chargement,décharge,déchargement,réglage d'écran,veille,verrouillage d'écran,extinction d'écran,extinction,bouton de mise sous tension,boutons de mise sous tension,niveaux de batterie,batterie faible,niveau faible,niveau critique,notifications d'énergie,brancher,débrancher",
    "X-KDE-Keywords[hu]": "rendszer,táp,energiakezelés,energia,laptop,akkumulátor,felfüggesztés,AC,felfüggeszt,felfüggesztés,hibernálás,fényesség,teljesítmény,fedél,energiatakarékosság,töltés,tölt,limit,töltési korlát,töltöttségi korlát,merít,merítés,kijelző elsötétítése,alvás,képernyőzárolás,zárképernyő,kijelző kikapcsolása,kikapcsolás,bekapcsológomb,bekapcsológombok,akkumulátor szintek,alacsony töltöttség,alacsony szint,kritikus szint,energiakezelési értesítések,csatlakoztat,kihúz",
    "X-KDE-Keywords[ia]": "systema,energia,gestion de energia,energia,laptop,batteria,suspension,AC,suspende,suspender,hibernar,hiberna,brillantia,comportamento,coperculo,sparnio de energia,cargante,carga,limite,limite de carga,limite cargante,discarga,discargante,schermo obscur,somno,bloca schermo,bloco de schermo,extingue schermo,extingue,button de actionar,buttones de actionar,nivellos de batteria,batteria basse,nivello basse,nivello critic,notification de energia,inserer,distacca",
    "X-KDE-Keywords[id]": "sistem,daya,pengelolaan daya,energi,laptop,notebook,baterai,suspensi,AC,suspensian,mengsuspensi,hibernasian,hibernasi,kecerahan,performa,lid,tutup,penghematan daya,mengisi,mengecas,pengecasan,batas,batasan,batasan pengisian,batasan casan,isi,cas,discharge,discharging,layar redup,tidur,kunci layar,lockscreen,matikan layar,matikan,tombol daya,tombol-tombol daya,tingkat baterai,baterai lemah,tingkat lemah,tingkat kritis,notifikasi daya,colok,colokkan,pengcolokal,lepaskan colokan",
    "X-KDE-Keywords[it]": "sistema,alimentazione,gestione dell'alimentazione,avanzate,energia,gestione energetica,energia,laptop,computer portatile,batteria,corrente alternata,sospensione,sospendere,ibernazione,ibernare,luminosità,prestazioni,coperchio,risparmio energetico,carica,limite,limite di carica,scarica,scaricare,spegnimento,oscura lo schermo,schermata di blocco,schermata di blocco,spegni lo schermo,spegni,pulsante di accensione,pulsanti di accensione,livelli batteria,batteria scarica,livello basso,livello critico,notifiche di alimentazione,collega,scollegare",
    "X-KDE-Keywords[ko]": "system,power,power management,energy,laptop,battery,suspension,AC,suspend,suspending,hibernating,hibernate,brightness,performance,lid,power saving,charging,charge,limit,charge limit,charging limit,discharge,discharging,dim screen,sleep,lock screen,lockscreen,turn screen off,turn off,power button,power buttons,battery levels,low battery,low level,critical level,power notifications,plug,unplug,시스템,전원,전원 관리,에너지,노트북,배터리,어댑터,절전,대기 모드,대기,최대 절전,최대 절전 모드,밝기,성능,덮개,상판,활동,충전 제한,레벨,임계,충전,제한,배터리 잔량,배터리 부족,전원 알림,화면 잠금,화면 끄기,전원 단추,전원 버튼",
    "X-KDE-Keywords[nl]": "systeem,energie,energiebeheer,laptop,batterij,accu,suspensie,onderbroken,AC,onderbreken,wordt onderbroken,helderheid,prestaties,deksel,energiebesparing,laden,wordt geladen,wordt opgeladen,lading,limiet,oplaadlimiet,limiet bij opladen,ontlading,ontladen,wordt ontladen,scherm dimmen,slapen,in slaap gaan,gaat in slaap,scherm vergrendelen,scherm uitschakelen,uitschakelen,powerknop,powerknoppen,batterijniveaus,lage batterij,laag niveau,kritiek niveau,energiemeldingen,inpluggen,uitpluggen",
    "X-KDE-Keywords[nn]": "system,straum,straumstyring,energi,laptop,berbar,berbar datamaskin,batteri,kvilemodus,AC,kvile,set i kvilemodus,dvale,dvalemodus,set i dvalemodus,lokket,lysstyrke,yting,lokk,batterisparing,nivå,kritisk,lade,lada,lading,grense,ladegrense,grense for lading,utlade,utlada,utlading,demp skjerm,kvile,lås skjerm,låseskjerm,skjermlås,slå av skjerm,slå av,straumknapp,straumknappar,batterinivå,lågt batteri,lågt nivå,kritisk nivå,straumvarsel,straumvarslingar,kopla til,kopla frå",
    "X-KDE-Keywords[pa]": "ਸਿਸਟਮ,ਪਾਵਰ,ਊਰਜਾ,ਊਰਜਾ ਇੰਤਜ਼ਾਮ,ਐਨਰਜੀ,ਲੈਪਟਾਪ,ਬੈਟਰੀ,ਮੁਅੱਤਲ,ਸਸਪੈਂਡ,ਏਸੀ,ਸਸਪੈਂਸ਼ਨ,ਹਾਈਬਰਨੇਟ,ਸਲੀਪ,ਕਵਰ,ਢਕਣ,ਨਾਜ਼ਕ,ਗੰਭੀਰ,ਚਾਰਜ,ਚਾਰਜਿੰਗ,ਲਿਮਟ,ਹੱਦ,ਚਾਰਜ ਲਿਮਟ,ਚਾਰਜਿੰਗ ਲਿਮਟ,ਸਸਪੈਂਡ,ਹਾਈਬਰਨੇਟ,ਡਿਸਚਾਰਜ,ਚਾਰਜ ਘਟਣਾ,ਬੰਦ,ਬੰਦ ਕਰੋ,ਬੈਟਰੀ ਪੱਧਰ,ਬੈਟਰੀ ਲੈਵਲ,ਘੱਟ ਬੈਟਰੀ,ਘੱਟ ਲੈਵਲ,ਗੰਭੀਰ ਪੱਧਰ,ਨਾਜ਼ੁਰ ਪੱਧਰ,ਪਾਵਰ ਨੋਟੀਫਿਕਸ਼ਨ,ਸੂਚਨਾ",
    "X-KDE-Keywords[pl]": "system,zasilanie,zarządzanie energią,energia,laptop,bateria,wstrzymanie,uśpienie,AC,wstrzymaj,uśpij,usypianie,hibernowanie,hibernuj,jasność,wydajność,pokrywa,pokrywka,działanie,działania,poziomy,krytyczny,oszczędzanie energii,ładowanie,ładunek,granica,graniczny ładunek,granica ładowania,limit,limit ładowania,rozładowywanie,wyłączenie,przyciemnianie ekranu,usypianie,ekran blokady,ekran blokady,wyłącz ekran,przycisk zasilania,przyciski zasilania,poziomy baterii,niska bateria,niski poziom,krytyczny poziom,powiadomienia o zasilaniu,podłącz,odłącz",
    "X-KDE-Keywords[pt]": "sistema,energia,gestão de energia,portátil,bateria,suspensão,AC,suspender,hibernar,hibernação,brilho,performance,tampa,poupança de energia,carregar,carregamento,carga,limite,limite de carga,descarga,descarregar,escurecer o ecrã,ecrã de bloqueio,desligar o ecrã,desligar,botão de energia,botões de energia,níveis,níveis de bateria,bateria fraca,crítico,nível fraco,nível crítico,notificações de energia,ligar,desligar",
    "X-KDE-Keywords[pt_BR]": "sistema,energia,gerenciamento de energia,energia,portátil,laptop,notebook,bateria,suspensão,suspendendo,hibernando,CA,AC,suspender,hibernar,brilho,desempenho,tampa,economia de energia,carregar,carregamento,carregando,limite,limite de carga,limite de carregamento,descarregar,descarregando,escurecer tela,dormir,bloquear tela,tela de bloqueio,desligar tela,desligar,desligando,botão de ligar,botões de energia,níveis da bateria,bateria baixa,nível baixo,nível crítico,notificações de energia,plugar,desplugar",
    "X-KDE-Keywords[ru]": "system,power,power management,energy,laptop,battery,suspension,AC,suspend,hibernate,brightness,performance,lid,levels,critical,charge,charging,limit,charge limit,charging limit,системное,питание,управление питанием,энергопотребление,ноутбук,батарея,спящий режим,гибернация,ждущий режим,яркость,производительность,крышка,ограничение зарядки,критический,заряд",
    "X-KDE-Keywords[sk]": "systém,napájanie,správa napájania,energia,notebook,batéria,uspatie,AC,uspať, uspatie,uspanie,hibernácia,hibernovať,jas,výkon,veko,úspora energie,nabíjanie,nabiť,limit,limit nabíjania,vybiť,vybitie,vybíjanie,stmavenie obrazovky,spánok,uzamknutie obrazovky, uzamknutie obrazovky,vypnutie obrazovky,vypnutie,tlačidlo napájania,tlačidlá napájania,úrovne batérie,slabá batéria,nízka batéria,nízka úroveň,kritická úroveň,oznámenia o napájaní,pripojiť,odpojiť",
    "X-KDE-Keywords[sl]": "sistem,energija,upravljanje z energijo,prenosnik,prenosni računalnik,baterija,akumulator,umirjanje,izmenični tok,pripravljenost,hibernacija,mirovanje,praznjenje,izklapljanje,nivoji napajanja,električno omrežje,kritični nivoji napajanja,svetlost,zmogljivost,pokrov,ohranjevanje baterije,polnjenje,omejitev polnjenja,zaklep zaslona,izklop zaslona,ugasnjevanja računalnika,gumb za zagon,gumbi za zagon,dejavnost,dejavnosti,napajanje,omejitev napajanja,obvestila o napajanju",
    "X-KDE-Keywords[sv]": "system,kraft,krafthantering,energi,bärbar dator,batteri,viloläge,AC,gå till viloläge,dvala,ljusstyrka,prestanda,lock,spara ström,ladda,laddning,gräns,laddningsgräns,urladda,urladdning,dämpa skärm,viloläge,lås skärm,stäng av skärm,stäng av,stänga av,strömknapp,strömknappar,nivåer,batterinivåer,svagt batteri,låg nivå,kritisk nivå,kritisk,strömunderrättelser,koppla in,koppla ur",
    "X-KDE-Keywords[ta]": "system,power,power management,energy,laptop,battery,suspension,AC,suspend,suspending,hibernating,hibernate,brightness,performance,lid,power saving,charging,charge,limit,charge limit,charging limit,discharge,discharging,dim screen,sleep,lock screen,lockscreen,turn screen off,turn off,power button,power buttons,battery levels,low battery,low level,critical level,power notifications,plug,unplug,கணினி, அமைப்பு, ஆற்றல், ஆற்றல் மேலாண்மை, ஆற்றல் நிர்வாகம், மடிக்கணினி, லாப்டாப், மின்கலம், பாட்டரி, தூக்கம், உறக்கம், இடைநிறுத்தம், மின், மின்சாரம், ஆழுறக்கம், ஹைபர்னேட், பிரகாசம், ஒளி, செயல்திறன், மூடி, ஆற்றல் சேமிப்பு, மின்னேற்றம், திரையை மங்கசெய், மங்கசெய், மங்கல், பூட்டு, திரையை பூட்டு, திரைபூட்டு, பூட்டுதிரை, திரையை அணை, அணை, மின்னேறு, முடக்கு, திரையை முடக்கு, நிறுத்து, பட்டன், மின்கல நிலை, மின்கல அளவு, குறைவான மின்கலம், குறைந்த மின்கலம்,  குறைவான அளவு, குறைவான நிலை, இக்கட்டான அளவு, நெருக்கடியான நிலை, ஆற்றல் அறிவிப்புகள், கழற்று",
    "X-KDE-Keywords[tr]": "sistem,güç,güç yönetimi,enerji,dizüstü,pil,askıya alma,AC,askıya al,askıya alınıyor,hazırda bekletiliyor, hazırda beklet,parlaklık,başarım,kapak,güç tasarrufu,şarj oluyor,şarj,limit,şarj limiti,şarj boşalıyor,boşalıyor,boşalım,ekranı karart, uyut,ekranı kilitle,ekranı kapat,kapat,güç düğmesi,güç düğmeleri,pil düzeyleri,düşük pil,düşük düzey,kritik düzey,güç bildirimleri,tak,çıkar",
    "X-KDE-Keywords[uk]": "system,power,power management,energy,laptop,battery,suspension,AC,suspend,suspending,hibernating,hibernate,brightness,performance,lid,power saving,charging,charge,limit,charge limit,charging limit,discharge,discharging,dim screen,sleep,lock screen,lockscreen,turn screen off,turn off,power button,power buttons,battery levels,low battery,low level,critical level,power notifications,plug,unplug,система,живлення,мережа,струм,керування,енергія,ноутбук,акумулятор,батарея,батареї,присипляння,призупинення,призупинка,яскравість,швидкодія,кришка,кришки,простір,дій,простори,активність,рівні,критичний,заряд,заряджання,межа,межа заряджання,обмеження,розряджання,розрядка,притлумлення,сон,блокування екрана,вимикання,вимикання екрана,кнопка живлення,кнопки живлення,рівень акумулятора,рівень батареї,низький заряд,критичний рівень,критичний заряд,сповіщення щодо живлення,з'єднання,роз'єднання",
    "X-KDE-Keywords[x-test]": "xxsystemxx,xxpowerxx,xxpower managementxx,xxenergyxx,xxlaptopxx,xxbatteryxx,xxsuspensionxx,xxACxx,xxsuspendxx,xxsuspendingxx,xxhibernatingxx,xxhibernatexx,xxbrightnessxx,xxperformancexx,xxlidxx,xxpower savingxx,xxchargingxx,xxchargexx,xxlimitxx,xxcharge limitxx,xxcharging limitxx,xxdischargexx,xxdischargingxx,xxdim screenxx,xxsleepxx,xxlock screenxx,xxlockscreenxx,xxturn screen offxx,xxturn offxx,xxpower buttonxx,xxpower buttonsxx,xxbattery levelsxx,xxlow batteryxx,xxlow levelxx,xxcritical levelxx,xxpower notificationsxx,xxplugxx,xxunplugxx",
    "X-KDE-Keywords[zh_CN]": "system,power,power management,energy,laptop,battery,suspension,AC,suspend,suspending,hibernating,hibernate,brightness,performance,lid,power saving,charging,charge,limit,charge limit,charging limit,discharge,discharging,dim screen,sleep,lock screen,lockscreen,turn screen off,turn off,power button,power buttons,battery levels,low battery,low level,critical level,power notifications,plug,unplug,系统,电源,电源管理,能源,笔记本,电池,挂起,交流电,休眠,亮度,性能,性能模式,盖子,省电,省电模式,充电,限制,充电限制,放电,屏幕变暗,睡眠,锁屏,关闭屏幕,关闭,电源按钮,电池电量,低电量,电量危急,危急电量临界值,电源通知,插入,插头,插座,拔出",
    "X-KDE-System-Settings-Parent-Category": "system-administration",
    "X-KDE-Weight": 20
}
